1 of  8 HM004 Algeria_10  43 km Algeria_10 Tunisia_10/Tunisia_6/Algeria_2/Tunisia_5/Morocco_10
2 of  8 HM072 Algeria_10  2.2 km Algeria_10 Tunisia_10/Tunisia_6/Algeria_2/Tunisia_5/Morocco_10
3 of  8 HM074 Algeria_10  2.2 km Algeria_10 Tunisia_10/Tunisia_6/Algeria_2/Tunisia_5/Morocco_10
4 of  8 HM079 Algeria_10  43 km Algeria_10 Tunisia_10/Tunisia_6/Algeria_2/Tunisia_5/Morocco_10
5 of  8 HM080 Algeria_10  14.6 km Algeria_10 Tunisia_10/Tunisia_6/Algeria_2/Tunisia_5/Morocco_10
6 of  8 HM163 Algeria_10  52.78 km Algeria_10 Tunisia_10/Tunisia_6/Algeria_2/Tunisia_5/Morocco_10
7 of  8 HM296 Algeria_10  19.56 km Algeria_10 Tunisia_10/Tunisia_6/Algeria_2/Tunisia_5/Morocco_10
8 of  8 HM297 Algeria_10  40.46 km Algeria_10 Tunisia_10/Tunisia_6/Algeria_2/Tunisia_5/Morocco_10
1 of  6 HM005 Algeria_6  339.56 km Algeria_6 Tunisia_1/France_9/Algeria_8/Tunisia_3/Algeria_2
2 of  6 HM084 Algeria_6  326.38 km Algeria_6 Tunisia_1/France_9/Algeria_8/Tunisia_3/Algeria_2
3 of  6 HM105 Algeria_6  366.37 km Algeria_6 Tunisia_1/France_9/Algeria_8/Tunisia_3/Algeria_2
4 of  6 HM166 Algeria_6  260.27 km Algeria_6 Tunisia_1/France_9/Algeria_8/Tunisia_3/Algeria_2
5 of  6 HM167 Algeria_6  753.55 km France_9 Tunisia_1/Algeria_6/Algeria_8/Tunisia_3/Algeria_2
6 of  6 HM295 Algeria_6  185.58 km Algeria_6 Tunisia_1/France_9/Algeria_8/Tunisia_3/Algeria_2
1 of  8 HM008 Algeria_3  44.39 km Algeria_3 Morocco_7/Algeria_11/France_5/France_10/Algeria_1
2 of  8 HM052 Algeria_3  87.19 km Algeria_3 Morocco_7/Algeria_11/France_5/France_10/Algeria_1
3 of  8 HM067 Algeria_3  865.17 km Morocco_7 Algeria_3/Algeria_11/France_5/France_10/Algeria_1
4 of  8 HM082 Algeria_3  87.19 km Algeria_3 Morocco_7/Algeria_11/France_5/France_10/Algeria_1
5 of  8 HM083 Algeria_3  87.19 km Algeria_3 Morocco_7/Algeria_11/France_5/France_10/Algeria_1
6 of  8 HM161 Algeria_3  1085.54 km Morocco_7 Algeria_3/Algeria_11/France_5/France_10/Algeria_1
7 of  8 HM294 Algeria_3  60.44 km Algeria_3 Morocco_7/Algeria_11/France_5/France_10/Algeria_1
8 of  8 HM298 Algeria_3  825.61 km Morocco_7 Algeria_3/Algeria_11/France_5/France_10/Algeria_1
1 of  10 HM011 Algeria_4  154.62 km Morocco_4 Algeria_4/Algeria_1/Algeria_9/France_8/Morocco_6
2 of  10 HM055 Algeria_4  133 km Morocco_4 Algeria_4/Algeria_1/Algeria_9/France_8/Morocco_6
3 of  10 HM081 Algeria_4  217.32 km Morocco_4 Algeria_4/Algeria_1/Algeria_9/France_8/Morocco_6
4 of  10 HM085 Algeria_4  166.75 km Morocco_4 Algeria_4/Algeria_1/Algeria_9/France_8/Morocco_6
5 of  10 HM086 Algeria_4  50.78 km Algeria_4 Morocco_4/Algeria_1/Algeria_9/France_8/Morocco_6
6 of  10 HM087 Algeria_4  173.43 km Morocco_4 Algeria_4/Algeria_1/Algeria_9/France_8/Morocco_6
7 of  10 HM088 Algeria_4  173.42 km Morocco_4 Algeria_4/Algeria_1/Algeria_9/France_8/Morocco_6
8 of  10 HM168 Algeria_4  173.42 km Morocco_4 Algeria_4/Algeria_1/Algeria_9/France_8/Morocco_6
9 of  10 HM276 Algeria_4  76.02 km Morocco_4 Algeria_4/Algeria_1/Algeria_9/France_8/Morocco_6
10 of  10 HM277 Algeria_4  206.59 km Morocco_4 Algeria_4/Algeria_1/Algeria_9/France_8/Morocco_6
1 of  5 HM014 Algeria_8  41.95 km Algeria_8 France_9/Tunisia_1/Algeria_6/Tunisia_3/Algeria_2
2 of  5 HM053 Algeria_8  228.61 km Algeria_8 France_9/Tunisia_1/Algeria_6/Tunisia_3/Algeria_2
3 of  5 HM107 Algeria_8  514.84 km Algeria_8 France_9/Tunisia_1/Algeria_6/Tunisia_3/Algeria_2
4 of  5 HM162 Algeria_8  328.86 km Algeria_8 France_9/Tunisia_1/Algeria_6/Tunisia_3/Algeria_2
5 of  5 HM267 Algeria_8  420.62 km Algeria_8 France_9/Tunisia_1/Algeria_6/Tunisia_3/Algeria_2
1 of  1 HM028 Algeria_5  0 km Algeria_5 Tunisia_2/Tunisia_11/Tunisia_7/France_10/Tunisia_5
1 of  1 HM054 Algeria_9  0 km Algeria_9 Algeria_1/Algeria_4/Morocco_4/France_8/Germany_0
1 of  1 HM164 Algeria_1  0 km Algeria_1 Algeria_4/Morocco_4/Algeria_9/France_8/France_5
1 of  1 HM165 Algeria_2  0 km Algeria_2 Tunisia_6/Tunisia_3/Tunisia_5/Algeria_8/Tunisia_10
1 of  1 HM266 Algeria_11  0 km Algeria_11 Algeria_3/Morocco_7/France_5/Algeria_2/Algeria_8
1 of  1 HM268 Algeria_7  0 km Algeria_7/Greece_5/Israel_3/Italy_2/Morocco_9 Israel_1/Greece_3/France_3/Portugal_5/Portugal_2
1 of  4 HM002 Cyprus_3  1983.61 km Italy_4 Cyprus_3/Syria_0/Greece_7/Libya_1/Cyprus_2
2 of  4 HM112 Cyprus_3  2018.16 km Italy_4 Cyprus_3/Syria_0/Greece_7/Libya_1/Cyprus_2
3 of  4 HM156 Cyprus_3  2011.46 km Italy_4 Cyprus_3/Syria_0/Greece_7/Libya_1/Cyprus_2
4 of  4 HM157 Cyprus_3  50.12 km Cyprus_3/Italy_4 Syria_0/Greece_7/Libya_1/Cyprus_2/Greece_1
1 of  1 HM099 Cyprus_1  0 km Cyprus_1 Greece_10/Greece_6/Greece_9/Italy_1/Greece_4
1 of  1 HM149 Cyprus_2  0 km Cyprus_2 Libya_1/Greece_7/Syria_0/Cyprus_3/Italy_4
1 of  1 HM006 France_3  0 km France_3 Israel_1/Greece_3/Algeria_7/Greece_5/Israel_3/Italy_2/Morocco_9
1 of  1 HM007 France_4  0 km France_4 France_6/Italy_5/France_11/France_10/France_5
1 of  2 HM013 France_8  51.49 km France_8 Morocco_6/Morocco_10/Morocco_8/Portugal_3/Portugal_4
2 of  2 HM032 France_8  131.46 km France_8 Algeria_9/Morocco_6/Algeria_1/Morocco_10/Morocco_8
1 of  5 HM015 France_6  26.79 km France_6 France_4/Italy_5/France_11/France_5/France_10
2 of  5 HM026 France_6  38.34 km France_6 France_4/Italy_5/France_11/France_5/France_10
3 of  5 HM035 France_6  60.14 km France_6 France_4/Italy_5/France_11/France_5/France_10
4 of  5 HM059 France_6  23.95 km France_6 France_4/Italy_5/France_11/France_5/France_10
5 of  5 HM131 France_6  85.24 km France_6 France_4/Italy_5/France_11/France_5/France_10
1 of  2 HM027 France_11  824.71 km Italy_5 France_11/France_3/France_10/Portugal_5/Jordan_0
2 of  2 HM278 France_11  771.43 km Italy_5 France_11/France_4/France_6/France_3/France_10
1 of  1 HM097 France_5  0 km France_5 Algeria_11/Algeria_3/Morocco_7/Italy_5/France_11
1 of  1 HM253 France_9  0 km France_9 Tunisia_1/Algeria_6/Algeria_8/Tunisia_3/Algeria_2
1 of  1 HM315 France_10  0 km France_10 Jordan_0/Italy_5/France_11/Turkey_0/Portugal_5
1 of  1 HM288 Germany_0  0 km Germany_0 Portugal_4/Spain_6/Morocco_8/Spain_2/Morocco_10
1 of  6 HM009 Greece_7  910.21 km Italy_4 Cyprus_3/Syria_0/Greece_7/Libya_1/Cyprus_2
2 of  6 HM062 Greece_7  971.15 km Italy_4 Cyprus_3/Syria_0/Greece_7/Libya_1/Cyprus_2
3 of  6 HM133 Greece_7  948 km Italy_4 Cyprus_3/Syria_0/Greece_7/Libya_1/Cyprus_2
4 of  6 HM186 Greece_7  960.03 km Italy_4 Cyprus_3/Syria_0/Greece_7/Libya_1/Cyprus_2
5 of  6 HM187 Greece_7  852.24 km Libya_1 Syria_0/Cyprus_3/Greece_7/Italy_4/Cyprus_2
6 of  6 HM188 Greece_7  1048.79 km Italy_4 Cyprus_3/Syria_0/Greece_7/Libya_1/Cyprus_2
1 of  1 HM036 Greece_10  0 km Greece_10 Cyprus_1/Greece_9/Italy_1/Greece_6/Greece_4
1 of  1 HM061 Greece_6  0 km Greece_6 Cyprus_1/Greece_10/Cyprus_2/Greece_1/Libya_1
1 of  2 HM077 Greece_5  2090.25 km Algeria_7/Greece_5/Israel_3/Italy_2/Morocco_9 Israel_1/Greece_3/France_3/Portugal_5/Portugal_2
2 of  2 HM078 Greece_5  2090.25 km Algeria_7/Greece_5/Israel_3/Italy_2/Morocco_9 Israel_1/Greece_3/France_3/Portugal_5/Portugal_2
1 of  1 HM134 Greece_1  0 km Greece_1 Cyprus_2/Libya_1/Greece_7/Syria_0/Cyprus_3
1 of  1 HM203 Greece_9  0 km Greece_9 Greece_4/Greece_10/Italy_1/Cyprus_1/Israel_2
1 of  1 HM259 Greece_8  0 km Greece_8 Morocco_2/Spain_3/Morocco_5/Morocco_3/Spain_2
1 of  1 HM289 Greece_3  0 km Greece_3 Israel_1/Algeria_7/Greece_5/Israel_3/Italy_2/Morocco_9
1 of  1 HM314 Greece_4  0 km Greece_4 Greece_9/Israel_2/Italy_1/Greece_10/Cyprus_1
1 of  2 HM039 Israel_1  48.27 km Israel_1 Algeria_7/Greece_5/Israel_3/Italy_2/Morocco_9
2 of  2 HM066 Israel_1  62.64 km Israel_1 Algeria_7/Greece_5/Israel_3/Italy_2/Morocco_9
1 of  1 HM109 Israel_3  3273.57 km Algeria_7/Greece_5/Israel_3/Italy_2/Morocco_9 Israel_1/Greece_3/France_3/Portugal_5/Portugal_2
1 of  1 HM135 Israel_2  0 km Israel_2 Greece_4/Greece_9/Jordan_0/Italy_1/Greece_3
1 of  1 HM010 Italy_1  0 km Italy_1 Greece_9/Greece_10/Cyprus_1/Greece_4/Israel_2
1 of  3 HM040 Italy_2  1486.75 km Algeria_7/Greece_5/Israel_3/Morocco_9 Italy_2/Israel_1/Greece_3/France_3/Portugal_5
2 of  3 HM111 Italy_2  1742 km Algeria_7/Greece_5/Israel_3/Morocco_9 Italy_2/Israel_1/Greece_3/France_3/Portugal_5
3 of  3 HM301 Italy_2  1432.61 km Algeria_7/Greece_5/Israel_3/Morocco_9 Italy_2/Israel_1/Greece_3/France_3/Portugal_5
1 of  2 HM075 Italy_3  190.99 km Italy_3 Tunisia_5/Morocco_6/Tunisia_3/Morocco_10/Morocco_8
2 of  2 HM202 Italy_3  180.99 km Italy_3 France_10/Morocco_10/Morocco_6/Morocco_8/France_8
1 of  1 HM300 Italy_5  0 km Italy_5 France_11/France_4/France_3/France_10/France_6
1 of  1 HM302 Italy_4  0 km Italy_4 Cyprus_3/Syria_0/Greece_7/Libya_1/Cyprus_2
1 of  2 HM044 Jordan_0  141.03 km Israel_2 Jordan_0/Greece_3/Turkey_0/Israel_1/Libya_4
2 of  2 HM045 Jordan_0  1293.44 km Libya_4 Turkey_0/Libya_3/Jordan_0/Israel_2/Israel_1
1 of  1 HM041 Libya_3  0 km Libya_3 Libya_4/Turkey_0/Jordan_0/Libya_2/Tunisia_9
1 of  1 HM138 Libya_4  0 km Libya_4 Turkey_0/Jordan_0/Libya_3/Israel_2/Libya_2
1 of  2 HM146 Libya_1  966.64 km Greece_7 Syria_0/Cyprus_3/Libya_1/Italy_4/Cyprus_2
2 of  2 HM148 Libya_1  1640.56 km Cyprus_3 Italy_4/Syria_0/Greece_7/Libya_1/Cyprus_2
1 of  1 HM147 Libya_2  0 km Libya_2 Tunisia_9/Tunisia_8/Libya_4/Libya_3/Turkey_0
1 of  1 HM012 Morocco_3  0 km Morocco_3 Morocco_5/Spain_2/Spain_3/Morocco_2/Greece_8
1 of  1 HM046 Morocco_10  0 km Morocco_10 Morocco_8/Morocco_6/Portugal_3/Portugal_4/Spain_7
1 of  1 HM070 Morocco_8  0 km Morocco_8 Morocco_10/Morocco_6/Portugal_4/Portugal_3/Germany_0
1 of  1 HM071 Morocco_6  0 km Morocco_6 Morocco_10/Morocco_8/Portugal_3/Spain_7/Spain_1
1 of  7 HM139 Morocco_2  2996.74 km Greece_8 Morocco_2/Spain_3/Morocco_5/Morocco_3/Spain_2
2 of  7 HM152 Morocco_2  2859.65 km Greece_8 Morocco_2/Spain_3/Morocco_5/Morocco_3/Spain_2
3 of  7 HM154 Morocco_2  603.6 km Spain_3 Greece_8/Morocco_2/Morocco_5/Morocco_3/Spain_2
4 of  7 HM193 Morocco_2  2868.71 km Greece_8 Morocco_2/Spain_3/Morocco_5/Morocco_3/Spain_2
5 of  7 HM201 Morocco_2  2800.79 km Greece_8 Morocco_2/Spain_3/Morocco_5/Morocco_3/Spain_2
6 of  7 HM299 Morocco_2  2902.58 km Greece_8 Morocco_2/Spain_3/Morocco_5/Morocco_3/Spain_2
7 of  7 HM309 Morocco_2  2999.46 km Greece_8 Morocco_2/Spain_3/Morocco_5/Morocco_3/Spain_2
1 of  1 HM155 Morocco_5  0 km Morocco_5 Spain_3/Morocco_2/Greece_8/Morocco_3/Spain_2
1 of  1 HM260 Morocco_9  606.97 km Algeria_7/Greece_5/Israel_3/Italy_2/Morocco_9 Israel_1/Greece_3/France_3/Portugal_5/Portugal_2
1 of  1 HM271 Morocco_1  0 km Morocco_1 Portugal_1/Spain_4/Spain_1/Spain_7/Portugal_3
1 of  1 HM279 Morocco_7  0 km Morocco_7 Algeria_3/Algeria_11/France_5/France_10/Algeria_1
1 of  1 HM311 Morocco_4  0 km Morocco_4 Algeria_4/Algeria_1/Algeria_9/France_8/Morocco_6
1 of  2 HM038 Portugal_4  32.06 km Portugal_4 Germany_0/Morocco_8/Morocco_10/Portugal_3/Spain_6
2 of  2 HM065 Portugal_4  24.25 km Portugal_4 Germany_0/Morocco_8/Portugal_3/Morocco_10/Morocco_6
1 of  2 HM063 Portugal_1  7.98 km Portugal_1 Morocco_1/Spain_4/Spain_1/Spain_7/Portugal_3
2 of  2 HM068 Portugal_1  7.98 km Portugal_1 Morocco_1/Spain_4/Spain_1/Spain_7/Portugal_3
1 of  1 HM064 Portugal_5  0 km Portugal_5 Portugal_2/Spain_5/Greece_3/Israel_1/France_3
1 of  1 HM098 Portugal_2  0 km Portugal_2 Spain_5/Portugal_5/Israel_1/Greece_3/France_3
1 of  1 HM189 Portugal_3  0 km Portugal_3 Spain_7/Morocco_10/Morocco_8/Morocco_6/Portugal_4
1 of  11 HM003 Spain_3  2695.87 km Greece_8 Morocco_2/Spain_3/Morocco_5/Morocco_3/Spain_2
2 of  11 HM031 Spain_3  12.23 km Spain_3 Morocco_2/Greece_8/Morocco_5/Morocco_3/Spain_2
3 of  11 HM057 Spain_3  2879.81 km Greece_8 Morocco_2/Spain_3/Morocco_5/Morocco_3/Spain_2
4 of  11 HM089 Spain_3  2879.81 km Greece_8 Morocco_2/Spain_3/Morocco_5/Morocco_3/Spain_2
5 of  11 HM119 Spain_3  92.98 km Spain_3 Morocco_2/Greece_8/Morocco_5/Morocco_3/Spain_2
6 of  11 HM121 Spain_3  2756.76 km Greece_8 Morocco_2/Spain_3/Morocco_5/Morocco_3/Spain_2
7 of  11 HM122 Spain_3  13.78 km Spain_3 Morocco_2/Greece_8/Morocco_5/Morocco_3/Spain_2
8 of  11 HM176 Spain_3  72.51 km Spain_3 Morocco_2/Greece_8/Morocco_5/Morocco_3/Spain_2
9 of  11 HM177 Spain_3  52.08 km Spain_3 Morocco_2/Greece_8/Morocco_5/Morocco_3/Spain_2
10 of  11 HM178 Spain_3  2783.22 km Greece_8 Morocco_2/Spain_3/Morocco_5/Morocco_3/Spain_2
11 of  11 HM179 Spain_3  2733.67 km Greece_8 Morocco_2/Spain_3/Morocco_5/Morocco_3/Spain_2
1 of  1 HM056 Spain_1  0 km Spain_1 Spain_4/Morocco_1/Portugal_1/Spain_7/Portugal_3
1 of  7 HM058 Spain_4  68.46 km Spain_4 Morocco_1/Portugal_1/Spain_1/Spain_7/Portugal_3
2 of  7 HM092 Spain_4  215.9 km Morocco_1 Portugal_1/Spain_4/Spain_1/Spain_7/Portugal_3
3 of  7 HM117 Spain_4  273.74 km Spain_4 Morocco_1/Portugal_1/Spain_1/Spain_7/Portugal_3
4 of  7 HM118 Spain_4  77.43 km Spain_4 Morocco_1/Portugal_1/Spain_1/Spain_7/Portugal_3
5 of  7 HM120 Spain_4  190.08 km Spain_4 Morocco_1/Portugal_1/Spain_1/Spain_7/Portugal_3
6 of  7 HM125 Spain_4  48.28 km Portugal_1 Morocco_1/Spain_4/Spain_1/Spain_7/Portugal_3
7 of  7 HM181 Spain_4  184.72 km Spain_4 Morocco_1/Portugal_1/Spain_1/Spain_7/Portugal_3
1 of  1 HM091 Spain_5  0 km Spain_5 Portugal_2/Portugal_5/Greece_3/Israel_1/France_3
1 of  1 HM093 Spain_6  0 km Spain_6 Spain_2/Morocco_3/Morocco_5/Spain_3/Morocco_2
1 of  1 HM124 Spain_7  0 km Spain_7 Portugal_3/Spain_1/Spain_4/Morocco_1/Portugal_1
1 of  2 HM169 Spain_2  38.79 km Spain_2 Morocco_3/Spain_6/Morocco_5/Spain_3/Morocco_2
2 of  2 HM180 Spain_2  607.27 km Morocco_5 Spain_3/Morocco_2/Greece_8/Spain_2/Morocco_3
1 of  2 HM001 Syria_0  1344.8 km Greece_7 Cyprus_3/Italy_4/Syria_0/Libya_1/Cyprus_2
2 of  2 HM150 Syria_0  2277.18 km Italy_4 Cyprus_3/Greece_7/Syria_0/Libya_1/Cyprus_2
1 of  11 HM016 Tunisia_1  386.09 km Algeria_6 Tunisia_1/France_9/Algeria_8/Tunisia_3/Algeria_2
2 of  11 HM043 Tunisia_1  442.29 km Algeria_6 Tunisia_1/France_9/Algeria_8/Tunisia_3/Algeria_2
3 of  11 HM073 Tunisia_1  429.62 km Algeria_6 Tunisia_1/France_9/Algeria_8/Tunisia_3/Algeria_2
4 of  11 HM106 Tunisia_1  491.45 km Algeria_6 Tunisia_1/France_9/Algeria_8/Tunisia_3/Algeria_2
5 of  11 HM108 Tunisia_1  654.96 km France_9 Algeria_6/Tunisia_1/Algeria_8/Tunisia_3/Algeria_2
6 of  11 HM196 Tunisia_1  444.58 km Algeria_6 Tunisia_1/France_9/Algeria_8/Tunisia_3/Algeria_2
7 of  11 HM198 Tunisia_1  442.29 km Algeria_6 Tunisia_1/France_9/Algeria_8/Tunisia_3/Algeria_2
8 of  11 HM213 Tunisia_1  452.3 km Algeria_6 Tunisia_1/France_9/Algeria_8/Tunisia_3/Algeria_2
9 of  11 HM219 Tunisia_1  452.3 km Algeria_6 Tunisia_1/France_9/Algeria_8/Tunisia_3/Algeria_2
10 of  11 HM220 Tunisia_1  452.3 km Algeria_6 Tunisia_1/France_9/Algeria_8/Tunisia_3/Algeria_2
11 of  11 HM222 Tunisia_1  452.3 km Algeria_6 Tunisia_1/France_9/Algeria_8/Tunisia_3/Algeria_2
1 of  3 HM020 Tunisia_9  68.74 km Tunisia_9 Libya_2/Tunisia_8/Turkey_0/Libya_4/Libya_3
2 of  3 HM021 Tunisia_9  53.52 km Tunisia_9 Libya_2/Tunisia_8/Libya_4/Turkey_0/Libya_3
3 of  3 HM243 Tunisia_9  72.09 km Tunisia_9 Libya_2/Tunisia_8/Libya_4/Libya_3/Turkey_0
1 of  1 HM024 Tunisia_7  0 km Tunisia_7 Tunisia_11/Tunisia_2/Algeria_5/France_10/Morocco_6
1 of  2 HM025 Tunisia_5  41.22 km Tunisia_5 Tunisia_6/Tunisia_3/Algeria_2/Tunisia_10/Algeria_8
2 of  2 HM244 Tunisia_5  41.22 km Tunisia_5 Tunisia_6/Tunisia_3/Algeria_2/Tunisia_10/Algeria_8
1 of  7 HM069 Tunisia_2  352.04 km Algeria_5 Tunisia_2/Tunisia_11/Tunisia_7/France_10/Tunisia_5
2 of  7 HM192 Tunisia_2  352.04 km Algeria_5 Tunisia_2/Tunisia_11/Tunisia_7/France_10/Tunisia_5
3 of  7 HM194 Tunisia_2  298.56 km Algeria_5 Tunisia_2/Tunisia_11/Tunisia_7/France_10/Tunisia_5
4 of  7 HM223 Tunisia_2  381.69 km Algeria_5 Tunisia_2/Tunisia_11/Tunisia_7/France_10/Tunisia_5
5 of  7 HM226 Tunisia_2  381.69 km Algeria_5 Tunisia_2/Tunisia_11/Tunisia_7/France_10/Tunisia_5
6 of  7 HM231 Tunisia_2  381.69 km Algeria_5 Tunisia_2/Tunisia_11/Tunisia_7/France_10/Tunisia_5
7 of  7 HM235 Tunisia_2  237.12 km Algeria_5/Tunisia_2 Tunisia_11/Tunisia_7/France_10/Tunisia_5/Tunisia_3
1 of  2 HM076 Tunisia_3  330.65 km Algeria_2 Tunisia_3/Tunisia_6/Tunisia_5/Algeria_8/Tunisia_10
2 of  2 HM221 Tunisia_3  83.21 km Tunisia_3 Algeria_2/Algeria_8/Tunisia_6/Tunisia_5/France_9
1 of  5 HM195 Tunisia_8  132.38 km Tunisia_8 Libya_2/Tunisia_9/Libya_4/Libya_3/Turkey_0
2 of  5 HM210 Tunisia_8  33.09 km Tunisia_8 Libya_2/Tunisia_9/Libya_4/Libya_3/Turkey_0
3 of  5 HM211 Tunisia_8  33.09 km Tunisia_8 Libya_2/Tunisia_9/Libya_4/Libya_3/Turkey_0
4 of  5 HM212 Tunisia_8  33.09 km Tunisia_8 Libya_2/Tunisia_9/Libya_4/Libya_3/Turkey_0
5 of  5 HM239 Tunisia_8  33.09 km Tunisia_8 Libya_2/Tunisia_9/Libya_4/Libya_3/Turkey_0
1 of  3 HM224 Tunisia_4  101.14 km Tunisia_4 Tunisia_5/Tunisia_6/France_10/Tunisia_10/Tunisia_3
2 of  3 HM232 Tunisia_4  50.62 km Tunisia_4 Tunisia_5/Tunisia_6/France_10/Tunisia_10/Tunisia_3
3 of  3 HM238 Tunisia_4  50.62 km Tunisia_4 Tunisia_5/Tunisia_6/France_10/Tunisia_10/Tunisia_3
