1 of  8 HM004 Algeria_11  121.28 km Tunisia_1 Algeria_11/Tunisia_8/Tunisia_4/Algeria_2/Tunisia_6
2 of  8 HM072 Algeria_11  144.31 km Tunisia_1 Algeria_11/Tunisia_8/Tunisia_4/Algeria_2/Tunisia_6
3 of  8 HM074 Algeria_11  144.31 km Tunisia_1 Algeria_11/Tunisia_8/Tunisia_4/Algeria_2/Tunisia_6
4 of  8 HM079 Algeria_11  121.28 km Tunisia_1 Algeria_11/Tunisia_8/Tunisia_4/Algeria_2/Tunisia_6
5 of  8 HM080 Algeria_11  146.34 km Tunisia_1 Algeria_11/Tunisia_8/Tunisia_4/Algeria_2/Tunisia_6
6 of  8 HM163 Algeria_11  110.29 km Tunisia_1 Algeria_11/Tunisia_8/Tunisia_4/Algeria_2/France_9
7 of  8 HM296 Algeria_11  159.39 km Tunisia_1 Algeria_11/Tunisia_8/Tunisia_4/Algeria_2/Tunisia_6
8 of  8 HM297 Algeria_11  112.73 km Tunisia_1 Algeria_11/Tunisia_8/Tunisia_4/Algeria_2/Tunisia_6
1 of  6 HM005 Algeria_6  336.13 km Algeria_6 Tunisia_7/France_3/Algeria_4/Tunisia_10/Tunisia_6
2 of  6 HM084 Algeria_6  329.76 km Algeria_6 Tunisia_7/France_3/Algeria_4/Tunisia_10/Tunisia_6
3 of  6 HM105 Algeria_6  362.99 km Algeria_6 Tunisia_7/France_3/Algeria_4/Tunisia_10/Tunisia_6
4 of  6 HM166 Algeria_6  263.07 km Algeria_6 Tunisia_7/France_3/Algeria_4/Tunisia_10/Tunisia_6
5 of  6 HM167 Algeria_6  283.81 km Algeria_6 Tunisia_7/France_3/Algeria_4/Tunisia_10/Tunisia_6
6 of  6 HM295 Algeria_6  182.43 km Algeria_6 Tunisia_7/France_3/Algeria_4/Tunisia_10/Tunisia_6
1 of  8 HM008 Algeria_8  44.39 km Algeria_8 Morocco_8/Algeria_1/France_2/Algeria_2/France_4
2 of  8 HM052 Algeria_8  87.2 km Algeria_8 Morocco_8/Algeria_1/France_2/Algeria_2/France_4
3 of  8 HM067 Algeria_8  26.03 km Algeria_8 Morocco_8/Algeria_1/France_2/Algeria_2/France_4
4 of  8 HM082 Algeria_8  87.2 km Algeria_8 Morocco_8/Algeria_1/France_2/Algeria_2/France_4
5 of  8 HM083 Algeria_8  87.2 km Algeria_8 Morocco_8/Algeria_1/France_2/Algeria_2/France_4
6 of  8 HM161 Algeria_8  225.23 km Algeria_8 Morocco_8/Algeria_1/France_2/Algeria_2/France_4
7 of  8 HM294 Algeria_8  60.43 km Algeria_8 Morocco_8/Algeria_1/France_2/Algeria_2/France_4
8 of  8 HM298 Algeria_8  42.11 km Algeria_8 Morocco_8/Algeria_1/France_2/Algeria_2/France_4
1 of  10 HM011 Algeria_3  154.62 km Morocco_5 Algeria_3/Algeria_10/Algeria_5/France_10/Morocco_6
2 of  10 HM055 Algeria_3  133 km Morocco_5 Algeria_3/Algeria_10/Algeria_5/France_10/Morocco_6
3 of  10 HM081 Algeria_3  217.32 km Morocco_5 Algeria_3/Algeria_10/Algeria_5/France_10/Morocco_6
4 of  10 HM085 Algeria_3  166.75 km Morocco_5 Algeria_3/Algeria_10/Algeria_5/France_10/Morocco_6
5 of  10 HM086 Algeria_3  98.5 km Morocco_5 Algeria_3/Algeria_10/Algeria_5/France_10/Morocco_6
6 of  10 HM087 Algeria_3  173.42 km Morocco_5 Algeria_3/Algeria_10/Algeria_5/France_10/Morocco_6
7 of  10 HM088 Algeria_3  173.42 km Morocco_5 Algeria_3/Algeria_10/Algeria_5/France_10/Morocco_6
8 of  10 HM168 Algeria_3  173.42 km Morocco_5 Algeria_3/Algeria_10/Algeria_5/France_10/Morocco_6
9 of  10 HM276 Algeria_3  76.01 km Morocco_5 Algeria_3/Algeria_10/Algeria_5/France_10/Morocco_6
10 of  10 HM277 Algeria_3  206.6 km Morocco_5 Algeria_3/Algeria_10/Algeria_5/France_10/Morocco_6
1 of  5 HM014 Algeria_4  49.8 km Algeria_4 France_3/Tunisia_7/Algeria_6/Tunisia_10/Algeria_2
2 of  5 HM053 Algeria_4  237.7 km Algeria_4 France_3/Tunisia_7/Algeria_6/Tunisia_10/Tunisia_6
3 of  5 HM107 Algeria_4  511.1 km Algeria_4 France_3/Tunisia_7/Algeria_6/Tunisia_10/Algeria_2
4 of  5 HM162 Algeria_4  335.48 km Algeria_4 France_3/Tunisia_7/Algeria_6/Tunisia_10/Tunisia_6
5 of  5 HM267 Algeria_4  413.91 km Algeria_4 France_3/Tunisia_7/Algeria_6/Tunisia_10/Tunisia_6
1 of  1 HM028 Algeria_7  0 km Algeria_7 Tunisia_9/Tunisia_11/France_4/Tunisia_2/Libya_2
1 of  1 HM054 Algeria_5  0 km Algeria_5 Algeria_10/Algeria_3/Morocco_5/France_10/Germany_0
1 of  1 HM164 Algeria_10  0 km Algeria_10 Algeria_3/Morocco_5/Algeria_5/France_10/Morocco_6
1 of  1 HM165 Algeria_2  0 km Algeria_2 Tunisia_6/Tunisia_10/Tunisia_4/Algeria_4/Tunisia_8
1 of  1 HM266 Algeria_1  0 km Algeria_1 Morocco_8/Algeria_8/France_2/Algeria_2/Algeria_4
1 of  1 HM268 Algeria_9  0 km Algeria_9 Greece_3/Cyprus_0/Italy_4/Greece_2/Syria_0
1 of  6 HM002 Cyprus_0  3661.1 km Morocco_3 Greece_2/Syria_0/Italy_4/Cyprus_0/Greece_3
2 of  6 HM099 Cyprus_0  3642.19 km Morocco_3 Greece_2/Syria_0/Italy_4/Cyprus_0/Greece_3
3 of  6 HM112 Cyprus_0  1813.3 km Italy_4 Greece_2/Syria_0/Morocco_3/Cyprus_0/Greece_3
4 of  6 HM149 Cyprus_0  1780.69 km Italy_4 Cyprus_0/Greece_2/Syria_0/Morocco_3/Greece_3
5 of  6 HM156 Cyprus_0  3699.74 km Morocco_3 Greece_2/Syria_0/Italy_4/Cyprus_0/Greece_3
6 of  6 HM157 Cyprus_0  1813.3 km Italy_4 Greece_2/Syria_0/Morocco_3/Cyprus_0/Greece_3
1 of  1 HM006 France_8  0 km France_8 Italy_2/Italy_3/Italy_6/Italy_5/Portugal_4
1 of  1 HM007 France_1  0 km France_1 France_11/France_7/Italy_1/France_6/France_9
1 of  2 HM013 France_10  23.06 km France_10 Morocco_6/Morocco_4/Portugal_5/Spain_4/Portugal_3
2 of  2 HM032 France_10  101.96 km France_10 Algeria_5/Morocco_6/Algeria_10/Morocco_4/Algeria_3
1 of  4 HM015 France_6  32.26 km France_6 France_11/France_1/France_7/Italy_1/France_9
2 of  4 HM026 France_6  36.97 km France_6 France_11/France_1/France_7/Italy_1/France_9
3 of  4 HM035 France_6  58.93 km France_6 France_11/France_1/France_7/Italy_1/France_9
4 of  4 HM131 France_6  83.99 km France_6 France_11/France_1/France_7/Italy_1/France_9
1 of  1 HM027 France_9  0 km France_9 Italy_6/France_7/France_1/Italy_1/France_11
1 of  1 HM278 France_7  0 km France_7 Italy_6/France_11/France_9/France_1/France_6
1 of  1 HM059 France_11  0 km France_11 France_6/France_1/France_7/Italy_1/France_9
1 of  1 HM097 France_2  0 km France_2 Algeria_1/Italy_1/France_9/France_1/Italy_6
1 of  1 HM253 France_3  0 km France_3 Tunisia_7/Algeria_6/Algeria_4/Tunisia_10/Tunisia_6
1 of  1 HM315 France_4  0 km France_4 Libya_1/Turkey_0/Libya_3/Algeria_7/Tunisia_11
1 of  1 HM288 Germany_0  0 km Germany_0 Portugal_3/Spain_3/Morocco_4/Morocco_2/Portugal_5
1 of  10 HM009 Greece_2  687.2 km Italy_4 Syria_0/Greece_2/Morocco_3/Cyprus_0/Greece_3
2 of  10 HM036 Greece_2  2743.02 km Morocco_3 Greece_2/Syria_0/Italy_4/Cyprus_0/Greece_3
3 of  10 HM061 Greece_2  2684.87 km Morocco_3 Greece_2/Syria_0/Italy_4/Cyprus_0/Greece_3
4 of  10 HM062 Greece_2  2814.32 km Morocco_3 Greece_2/Syria_0/Italy_4/Cyprus_0/Greece_3
5 of  10 HM077 Greece_2  2695.01 km Morocco_3 Greece_2/Syria_0/Italy_4/Cyprus_0/Greece_3
6 of  10 HM078 Greece_2  12.18 km Greece_2 Syria_0/Morocco_3/Italy_4/Cyprus_0/Greece_3
7 of  10 HM186 Greece_2  1394.13 km Syria_0 Morocco_3/Greece_2/Italy_4/Cyprus_0/Greece_3
8 of  10 HM187 Greece_2  2684.87 km Morocco_3 Greece_2/Syria_0/Italy_4/Cyprus_0/Greece_3
9 of  10 HM188 Greece_2  2731.44 km Morocco_3 Greece_2/Syria_0/Italy_4/Cyprus_0/Greece_3
10 of  10 HM203 Greece_2  2691.62 km Morocco_3 Greece_2/Syria_0/Italy_4/Cyprus_0/Greece_3
1 of  1 HM133 Greece_3  0 km Greece_3 Algeria_9/Cyprus_0/Italy_4/Greece_2/Syria_0
1 of  1 HM134 Greece_1  0 km Greece_1 Greece_3/Greece_4/Greece_6/Algeria_9/Libya_4
1 of  1 HM259 Greece_7  0 km Greece_7 Morocco_1/Spain_5/Morocco_2/Spain_3/Germany_0
1 of  1 HM289 Greece_4  0 km Greece_4 Libya_4/Algeria_9/Greece_3/Cyprus_0/Italy_4
1 of  1 HM314 Greece_6  0 km Greece_6 Greece_4/Algeria_9/Libya_4/Greece_3/Cyprus_0
1 of  2 HM039 Israel_2  46.09 km Israel_2 Jordan_0/Israel_1/Israel_3/Italy_3/Italy_2
2 of  2 HM066 Israel_2  46.42 km Israel_2 Jordan_0/Israel_1/Israel_3/Italy_3/Libya_3
1 of  1 HM109 Israel_3  0 km Israel_3 Israel_1/Greece_6/Italy_3/Israel_2/Italy_5
1 of  1 HM135 Israel_1  0 km Israel_1 Israel_2/Libya_4/Greece_4/Israel_3/Greece_6
1 of  1 HM010 Italy_5  0 km Italy_5 Italy_2/Italy_3/Greece_4/Greece_6/Libya_4
1 of  2 HM040 Italy_4  2092.74 km Morocco_3 Greece_2/Syria_0/Italy_4/Cyprus_0/Greece_3
2 of  2 HM302 Italy_4  995.06 km Greece_2 Syria_0/Italy_4/Morocco_3/Cyprus_0/Greece_3
1 of  1 HM075 Italy_7  0 km Italy_7 Italy_1/Portugal_2/France_4/France_1/France_9
1 of  1 HM111 Italy_3  0 km Italy_3 Italy_2/Italy_5/Israel_3/Israel_1/Israel_2
1 of  1 HM202 Italy_1  0 km Italy_1 Italy_7/France_1/France_11/France_7/France_9
1 of  1 HM300 Italy_6  0 km Italy_6 France_9/France_7/France_8/France_1/Italy_1
1 of  1 HM301 Italy_2  0 km Italy_2 Italy_3/Italy_5/Israel_1/Israel_3/Israel_2
1 of  2 HM044 Jordan_0  67.96 km Israel_2 Israel_1/Italy_3/Israel_3/Jordan_0/Italy_2
2 of  2 HM045 Jordan_0  1305.73 km Libya_3 Turkey_0/Jordan_0/Israel_2/Libya_1/Libya_2
1 of  1 HM041 Libya_1  0 km Libya_1 Libya_3/Turkey_0/Libya_2/France_4/Jordan_0
1 of  1 HM138 Libya_3  0 km Libya_3 Turkey_0/Jordan_0/Libya_1/Israel_2/Libya_2
1 of  2 HM146 Libya_4  983.35 km Greece_4 Algeria_9/Greece_3/Cyprus_0/Italy_4/Greece_2
2 of  2 HM148 Libya_4  2145.72 km Morocco_3 Greece_2/Syria_0/Italy_4/Cyprus_0/Greece_3
1 of  1 HM147 Libya_2  0 km Libya_2 Tunisia_2/Tunisia_11/Turkey_0/Libya_1/Tunisia_3
1 of  1 HM012 Morocco_2  0 km Morocco_2 Morocco_1/Spain_5/Greece_7/Spain_3/Germany_0
1 of  2 HM046 Morocco_4  44.06 km Morocco_4 Morocco_6/Portugal_5/Portugal_3/Spain_4/Germany_0
2 of  2 HM070 Morocco_4  38.9 km Morocco_4 Morocco_6/Portugal_3/Portugal_5/Spain_4/Germany_0
1 of  1 HM071 Morocco_6  0 km Morocco_6 Morocco_4/Portugal_5/Spain_4/Spain_1/Spain_2
1 of  8 HM139 Morocco_1  2996.74 km Greece_7 Spain_5/Morocco_1/Morocco_2/Spain_3/Germany_0
2 of  8 HM152 Morocco_1  2859.65 km Greece_7 Spain_5/Morocco_1/Morocco_2/Spain_3/Germany_0
3 of  8 HM154 Morocco_1  3067.68 km Greece_7 Spain_5/Morocco_1/Morocco_2/Spain_3/Germany_0
4 of  8 HM155 Morocco_1  655.45 km Spain_5 Morocco_1/Greece_7/Morocco_2/Spain_3/Germany_0
5 of  8 HM193 Morocco_1  2868.71 km Greece_7 Spain_5/Morocco_1/Morocco_2/Spain_3/Germany_0
6 of  8 HM201 Morocco_1  2800.79 km Greece_7 Spain_5/Morocco_1/Morocco_2/Spain_3/Germany_0
7 of  8 HM299 Morocco_1  2902.58 km Greece_7 Spain_5/Morocco_1/Morocco_2/Spain_3/Germany_0
8 of  8 HM309 Morocco_1  2999.46 km Greece_7 Spain_5/Morocco_1/Morocco_2/Spain_3/Germany_0
1 of  1 HM260 Morocco_3  0 km Morocco_3 Greece_2/Syria_0/Italy_4/Cyprus_0/Greece_3
1 of  1 HM271 Morocco_7  0 km Morocco_7/Portugal_1 Spain_6/Spain_1/Spain_4/Portugal_5/Morocco_6
1 of  1 HM279 Morocco_8  0 km Morocco_8 Algeria_8/Algeria_1/France_2/Algeria_2/France_4
1 of  1 HM311 Morocco_5  0 km Morocco_5 Algeria_3/Algeria_10/Algeria_5/France_10/Morocco_6
1 of  2 HM038 Portugal_3  28.93 km Portugal_3 Germany_0/Morocco_4/Portugal_5/Morocco_6/Spain_4
2 of  2 HM065 Portugal_3  22.93 km Portugal_3 Germany_0/Morocco_4/Portugal_5/Morocco_6/Spain_4
1 of  2 HM063 Portugal_1  240.24 km Morocco_7/Portugal_1 Spain_6/Spain_1/Spain_4/Portugal_5/Morocco_6
2 of  2 HM068 Portugal_1  230.35 km Morocco_7/Portugal_1 Spain_6/Spain_1/Spain_4/Portugal_5/Morocco_6
1 of  1 HM064 Portugal_4  0 km Portugal_4 Spain_2/Portugal_2/Italy_3/France_8/Italy_2
1 of  1 HM098 Portugal_2  0 km Portugal_2 Spain_2/Portugal_4/Morocco_6/France_8/Italy_7
1 of  1 HM189 Portugal_5  0 km Portugal_5 Spain_4/Morocco_4/Morocco_6/Portugal_3/Spain_1
1 of  12 HM003 Spain_5  2695.87 km Greece_7 Morocco_1/Spain_5/Morocco_2/Spain_3/Germany_0
2 of  12 HM031 Spain_5  2796.97 km Greece_7 Morocco_1/Spain_5/Morocco_2/Spain_3/Germany_0
3 of  12 HM057 Spain_5  2879.81 km Greece_7 Morocco_1/Spain_5/Morocco_2/Spain_3/Germany_0
4 of  12 HM089 Spain_5  2879.81 km Greece_7 Morocco_1/Spain_5/Morocco_2/Spain_3/Germany_0
5 of  12 HM119 Spain_5  2864.94 km Greece_7 Morocco_1/Spain_5/Morocco_2/Spain_3/Germany_0
6 of  12 HM121 Spain_5  2756.76 km Greece_7 Morocco_1/Spain_5/Morocco_2/Spain_3/Germany_0
7 of  12 HM122 Spain_5  2773.44 km Greece_7 Morocco_1/Spain_5/Morocco_2/Spain_3/Germany_0
8 of  12 HM176 Spain_5  2724.95 km Greece_7 Morocco_1/Spain_5/Morocco_2/Spain_3/Germany_0
9 of  12 HM177 Spain_5  2760.24 km Greece_7 Morocco_1/Spain_5/Morocco_2/Spain_3/Germany_0
10 of  12 HM178 Spain_5  2783.22 km Greece_7 Morocco_1/Spain_5/Morocco_2/Spain_3/Germany_0
11 of  12 HM179 Spain_5  2733.67 km Greece_7 Morocco_1/Spain_5/Morocco_2/Spain_3/Germany_0
12 of  12 HM180 Spain_5  440.63 km Morocco_1 Spain_5/Greece_7/Morocco_2/Spain_3/Germany_0
1 of  1 HM056 Spain_1  0 km Spain_1 Spain_6/Morocco_7/Portugal_1/Spain_4/Portugal_5
1 of  7 HM058 Spain_6  68.47 km Spain_6 Morocco_7/Portugal_1/Spain_1/Spain_4/Portugal_5
2 of  7 HM092 Spain_6  153.74 km Spain_6 Morocco_7/Portugal_1/Spain_1/Spain_4/Portugal_5
3 of  7 HM117 Spain_6  273.75 km Spain_6 Morocco_7/Portugal_1/Spain_1/Spain_4/Portugal_5
4 of  7 HM118 Spain_6  132.28 km Morocco_7/Portugal_1 Spain_6/Spain_1/Spain_4/Portugal_5/Morocco_6
5 of  7 HM120 Spain_6  190.08 km Spain_6 Morocco_7/Portugal_1/Spain_1/Spain_4/Portugal_5
6 of  7 HM125 Spain_6  222.74 km Morocco_7/Portugal_1 Spain_6/Spain_1/Spain_4/Portugal_5/Morocco_6
7 of  7 HM181 Spain_6  184.72 km Spain_6 Morocco_7/Portugal_1/Spain_1/Spain_4/Portugal_5
1 of  1 HM091 Spain_2  0 km Spain_2 Portugal_2/Portugal_4/Morocco_6/France_8/Morocco_4
1 of  2 HM093 Spain_3  137.76 km Spain_3 Morocco_2/Spain_5/Morocco_1/Greece_7/Germany_0
2 of  2 HM169 Spain_3  644.17 km Morocco_2 Spain_3/Spain_5/Morocco_1/Greece_7/Germany_0
1 of  1 HM124 Spain_4  0 km Spain_4 Portugal_5/Spain_1/Spain_6/Morocco_7/Portugal_1
1 of  2 HM001 Syria_0  1336.53 km Greece_2 Italy_4/Morocco_3/Syria_0/Cyprus_0/Greece_3
2 of  2 HM150 Syria_0  4009.01 km Morocco_3 Greece_2/Syria_0/Italy_4/Cyprus_0/Greece_3
1 of  11 HM016 Tunisia_7  388.94 km Algeria_6 Tunisia_7/France_3/Algeria_4/Tunisia_10/Tunisia_6
2 of  11 HM043 Tunisia_7  445.03 km Algeria_6 Tunisia_7/France_3/Algeria_4/Tunisia_10/Tunisia_6
3 of  11 HM073 Tunisia_7  432.41 km Algeria_6 Tunisia_7/France_3/Algeria_4/Tunisia_10/Tunisia_6
4 of  11 HM106 Tunisia_7  494.24 km Algeria_6 Tunisia_7/France_3/Algeria_4/Tunisia_10/Tunisia_6
5 of  11 HM108 Tunisia_7  667.51 km France_3 Tunisia_7/Algeria_6/Algeria_4/Tunisia_10/Tunisia_6
6 of  11 HM196 Tunisia_7  447.18 km Algeria_6 Tunisia_7/France_3/Algeria_4/Tunisia_10/Tunisia_6
7 of  11 HM198 Tunisia_7  445.03 km Algeria_6 Tunisia_7/France_3/Algeria_4/Tunisia_10/Tunisia_6
8 of  11 HM213 Tunisia_7  455.17 km Algeria_6 Tunisia_7/France_3/Algeria_4/Tunisia_10/Tunisia_6
9 of  11 HM219 Tunisia_7  455.17 km Algeria_6 Tunisia_7/France_3/Algeria_4/Tunisia_10/Tunisia_6
10 of  11 HM220 Tunisia_7  455.16 km Algeria_6 Tunisia_7/France_3/Algeria_4/Tunisia_10/Tunisia_6
11 of  11 HM222 Tunisia_7  455.16 km Algeria_6 Tunisia_7/France_3/Algeria_4/Tunisia_10/Tunisia_6
1 of  2 HM020 Tunisia_11  43.58 km Tunisia_11 Tunisia_2/Libya_2/Tunisia_3/Tunisia_9/Tunisia_5
2 of  2 HM225 Tunisia_11  95.82 km Tunisia_11 Tunisia_9/Tunisia_2/Algeria_7/Libya_2/Tunisia_5
1 of  1 HM021 Tunisia_2  0 km Tunisia_2 Tunisia_3/Tunisia_11/Libya_2/Tunisia_5/Tunisia_9
1 of  1 HM024 Tunisia_5  0 km Tunisia_5 Tunisia_2/Tunisia_11/Libya_2/Tunisia_3/Libya_1
1 of  4 HM025 Tunisia_4  34.49 km Tunisia_4 Tunisia_8/Algeria_2/Tunisia_6/Tunisia_10/Algeria_11
2 of  4 HM234 Tunisia_4  26.42 km Tunisia_4 Tunisia_8/Algeria_2/Tunisia_6/Tunisia_10/Algeria_11
3 of  4 HM244 Tunisia_4  28.14 km Tunisia_4 Tunisia_8/Algeria_2/Tunisia_6/Tunisia_10/Algeria_11
4 of  4 HM245 Tunisia_4  22.76 km Tunisia_4 Algeria_2/Tunisia_6/Tunisia_8/Tunisia_10/Algeria_11
1 of  12 HM069 Tunisia_3  3.59 km Tunisia_3 Tunisia_2/Tunisia_11/Libya_2/Tunisia_5/Tunisia_9
2 of  12 HM192 Tunisia_3  3.59 km Tunisia_3 Tunisia_2/Tunisia_11/Libya_2/Tunisia_5/Tunisia_9
3 of  12 HM195 Tunisia_3  170.96 km Tunisia_3 Tunisia_2/Tunisia_11/Libya_2/Tunisia_5/Tunisia_9
4 of  12 HM210 Tunisia_3  13.02 km Tunisia_3 Tunisia_2/Tunisia_11/Libya_2/Tunisia_5/Tunisia_9
5 of  12 HM211 Tunisia_3  13.02 km Tunisia_3 Tunisia_2/Tunisia_11/Libya_2/Tunisia_5/Tunisia_9
6 of  12 HM212 Tunisia_3  13.02 km Tunisia_3 Tunisia_2/Tunisia_11/Libya_2/Tunisia_5/Tunisia_9
7 of  12 HM223 Tunisia_3  53.09 km Tunisia_3 Tunisia_2/Tunisia_11/Libya_2/Tunisia_5/Tunisia_9
8 of  12 HM226 Tunisia_3  53.09 km Tunisia_3 Tunisia_2/Tunisia_11/Libya_2/Tunisia_5/Tunisia_9
9 of  12 HM231 Tunisia_3  53.09 km Tunisia_3 Tunisia_2/Tunisia_11/Libya_2/Tunisia_5/Tunisia_9
10 of  12 HM235 Tunisia_3  142.08 km Tunisia_3 Tunisia_2/Tunisia_11/Libya_2/Tunisia_5/Tunisia_9
11 of  12 HM239 Tunisia_3  13.02 km Tunisia_3 Tunisia_2/Tunisia_11/Libya_2/Tunisia_5/Tunisia_9
12 of  12 HM243 Tunisia_3  13.02 km Tunisia_3 Tunisia_2/Tunisia_11/Libya_2/Tunisia_5/Tunisia_9
1 of  1 HM076 Tunisia_6  0 km Tunisia_6 Algeria_2/Tunisia_10/Tunisia_4/Algeria_4/France_3
1 of  1 HM194 Tunisia_9  0 km Tunisia_9 Algeria_7/Tunisia_11/Tunisia_2/France_4/Libya_2
1 of  1 HM221 Tunisia_10  0 km Tunisia_10 Tunisia_6/Algeria_2/Algeria_4/Tunisia_4/France_3
1 of  5 HM224 Tunisia_1  128.56 km Tunisia_1 Algeria_11/Tunisia_8/Tunisia_4/Algeria_2/Tunisia_6
2 of  5 HM232 Tunisia_1  23.2 km Tunisia_1 Algeria_11/Tunisia_8/Tunisia_4/Algeria_2/Tunisia_6
3 of  5 HM236 Tunisia_1  86.63 km Algeria_11 Tunisia_1/Tunisia_8/Tunisia_4/Algeria_2/Tunisia_6
4 of  5 HM237 Tunisia_1  23.2 km Tunisia_1 Algeria_11/Tunisia_8/Tunisia_4/Algeria_2/Tunisia_6
5 of  5 HM238 Tunisia_1  23.2 km Tunisia_1 Algeria_11/Tunisia_8/Tunisia_4/Algeria_2/Tunisia_6
