1 of  8 HM004 Algeria_7  18.61 km Algeria_7 France_11/Italy_6/Algeria_6/Tunisia_2/Tunisia_1
2 of  8 HM072 Algeria_7  20.24 km Algeria_7 France_11/Italy_6/Algeria_6/Tunisia_2/Tunisia_1
3 of  8 HM074 Algeria_7  24 km Algeria_7 France_11/Italy_6/Algeria_6/Tunisia_2/Tunisia_1
4 of  8 HM079 Algeria_7  25.92 km Algeria_7 France_11/Italy_6/Algeria_6/Tunisia_2/Tunisia_1
5 of  8 HM080 Algeria_7  115.53 km Algeria_7 Algeria_6/France_11/Tunisia_2/Tunisia_1/Algeria_5
6 of  8 HM163 Algeria_7  71.91 km Algeria_7 Italy_6/France_11/Algeria_6/Italy_1/Tunisia_2
7 of  8 HM296 Algeria_7  28.48 km Algeria_7 France_11/Algeria_6/Italy_6/Tunisia_2/Tunisia_1
8 of  8 HM297 Algeria_7  45.15 km Algeria_7 France_11/Algeria_6/Italy_6/Tunisia_2/Tunisia_1
1 of  9 HM005 Algeria_5  453.28 km Algeria_5 Tunisia_3/France_4/Algeria_6/Tunisia_2/Tunisia_1
2 of  9 HM028 Algeria_5  778.22 km France_4 Tunisia_3/Algeria_5/Algeria_6/Tunisia_2/Tunisia_1
3 of  9 HM053 Algeria_5  673.99 km France_4 Tunisia_3/Algeria_5/Algeria_6/Tunisia_2/Tunisia_1
4 of  9 HM084 Algeria_5  721.27 km France_4 Tunisia_3/Algeria_5/Algeria_6/Tunisia_2/Tunisia_1
5 of  9 HM105 Algeria_5  491.11 km Algeria_5 Tunisia_3/France_4/Algeria_6/Tunisia_2/Tunisia_1
6 of  9 HM162 Algeria_5  685.73 km France_4 Tunisia_3/Algeria_5/Algeria_6/Tunisia_2/Tunisia_1
7 of  9 HM166 Algeria_5  145.98 km Algeria_5 Tunisia_3/France_4/Algeria_6/Tunisia_2/Tunisia_1
8 of  9 HM167 Algeria_5  764.9 km France_4 Tunisia_3/Algeria_5/Algeria_6/Tunisia_2/Tunisia_1
9 of  9 HM295 Algeria_5  999.49 km France_4 Tunisia_3/Algeria_5/Algeria_6/Tunisia_2/Tunisia_1
1 of  8 HM008 Algeria_4  891.89 km Morocco_3 Algeria_4/Algeria_3/France_8/Morocco_1/Algeria_1
2 of  8 HM052 Algeria_4  777.35 km Morocco_3 Algeria_4/Algeria_3/France_8/Morocco_1/Algeria_1
3 of  8 HM067 Algeria_4  865.17 km Morocco_3 Algeria_4/Algeria_3/France_8/Morocco_1/Algeria_1
4 of  8 HM082 Algeria_4  777.35 km Morocco_3 Algeria_4/Algeria_3/France_8/Morocco_1/Algeria_1
5 of  8 HM083 Algeria_4  777.35 km Morocco_3 Algeria_4/Algeria_3/France_8/Morocco_1/Algeria_1
6 of  8 HM161 Algeria_4  1068.27 km Morocco_3 Algeria_4/Algeria_3/France_8/Morocco_1/Algeria_1
7 of  8 HM294 Algeria_4  885.52 km Morocco_3 Algeria_4/Algeria_3/France_8/Morocco_1/Algeria_1
8 of  8 HM298 Algeria_4  825.6 km Morocco_3 Algeria_4/Algeria_3/France_8/Morocco_1/Algeria_1
1 of  12 HM011 Algeria_1  9.71 km Algeria_1 Morocco_1/Spain_7/Germany_0/Spain_1/Morocco_5
2 of  12 HM054 Algeria_1  360.34 km Spain_7 Spain_1/Morocco_5/Spain_4/Greece_2/Algeria_1
3 of  12 HM055 Algeria_1  33.83 km Algeria_1 Morocco_1/Spain_7/Germany_0/Spain_1/Morocco_5
4 of  12 HM081 Algeria_1  62.73 km Algeria_1 Morocco_1/Spain_7/Germany_0/Spain_1/France_7
5 of  12 HM085 Algeria_1  54.14 km Algeria_1 Morocco_1/Spain_7/Spain_1/Germany_0/Morocco_5
6 of  12 HM086 Algeria_1  57.21 km Algeria_1 Morocco_1/Spain_7/Spain_1/Morocco_5/Spain_4
7 of  12 HM087 Algeria_1  52.31 km Algeria_1 Morocco_1/Spain_7/Germany_0/Spain_1/Morocco_5
8 of  12 HM088 Algeria_1  45.6 km Algeria_1 Morocco_1/Spain_7/Spain_1/Germany_0/Morocco_5
9 of  12 HM164 Algeria_1  228.54 km Morocco_1 Algeria_1/Algeria_3/Algeria_4/Morocco_3/France_8
10 of  12 HM168 Algeria_1  49.87 km Algeria_1 Morocco_1/Spain_7/Germany_0/Spain_1/Morocco_5
11 of  12 HM276 Algeria_1  144.26 km Algeria_1 Morocco_1/Algeria_3/Spain_7/Germany_0/France_7
12 of  12 HM277 Algeria_1  109.66 km Algeria_1 Morocco_1/Spain_7/Algeria_3/Germany_0/France_7
1 of  4 HM014 Algeria_6  213.25 km Algeria_6 Algeria_5/Tunisia_3/France_4/Tunisia_2/Tunisia_1
2 of  4 HM107 Algeria_6  363.7 km Algeria_6 Algeria_5/Tunisia_3/France_4/Tunisia_2/Tunisia_1
3 of  4 HM165 Algeria_6  157.7 km Algeria_6 Algeria_7/Tunisia_2/Algeria_5/Tunisia_3/France_11
4 of  4 HM267 Algeria_6  248.59 km Algeria_6 Algeria_5/Tunisia_3/France_4/Tunisia_2/Tunisia_1
1 of  1 HM266 Algeria_3  0 km Algeria_3 Algeria_4/Morocco_3/France_8/Algeria_6/Algeria_7
1 of  1 HM268 Algeria_2  0 km Algeria_2 Libya_2/Greece_4/Italy_4/Cyprus_0/Morocco_2/Syria_0
1 of  6 HM002 Cyprus_0  3661.1 km Morocco_2/Syria_0 Cyprus_0/Italy_4/Greece_4/Libya_2/Algeria_2
2 of  6 HM099 Cyprus_0  3642.19 km Morocco_2/Syria_0 Cyprus_0/Italy_4/Greece_4/Libya_2/Algeria_2
3 of  6 HM112 Cyprus_0  3659.46 km Morocco_2/Syria_0 Cyprus_0/Italy_4/Greece_4/Libya_2/Algeria_2
4 of  6 HM149 Cyprus_0  3651.59 km Morocco_2/Syria_0 Cyprus_0/Italy_4/Greece_4/Libya_2/Algeria_2
5 of  6 HM156 Cyprus_0  3699.74 km Morocco_2/Syria_0 Cyprus_0/Italy_4/Greece_4/Libya_2/Algeria_2
6 of  6 HM157 Cyprus_0  3659.47 km Morocco_2/Syria_0 Cyprus_0/Italy_4/Greece_4/Libya_2/Algeria_2
1 of  1 HM006 France_3  0 km France_3 Italy_5/Italy_3/Italy_2/Portugal_1/Jordan_0
1 of  1 HM007 France_1  0 km France_1 France_6/Italy_1/France_9/Italy_2/France_2
1 of  2 HM013 France_7  12.83 km France_7 Morocco_4/Portugal_2/Portugal_3/Morocco_6/Germany_0
2 of  2 HM032 France_7  64.7 km France_7 Portugal_2/Morocco_4/Portugal_3/Morocco_6/Germany_0
1 of  4 HM015 France_2  32.26 km France_2 France_6/France_1/France_9/Italy_1/Italy_2
2 of  4 HM026 France_2  36.97 km France_2 France_6/France_1/France_9/Italy_1/Italy_2
3 of  4 HM035 France_2  58.94 km France_2 France_6/France_1/France_9/Italy_1/Italy_2
4 of  4 HM131 France_2  83.99 km France_2 France_6/France_1/France_9/Italy_1/Italy_2
1 of  2 HM027 France_9  43.21 km France_9 Italy_2/France_1/France_6/Italy_1/France_2
2 of  2 HM278 France_9  822.11 km Italy_2 France_9/France_1/France_6/Italy_1/France_2
1 of  1 HM059 France_6  0 km France_6 France_2/France_1/France_9/Italy_1/Italy_2
1 of  1 HM097 France_8  0 km France_8 Algeria_3/France_1/Italy_1/France_9/Italy_2
1 of  1 HM253 France_4  0 km France_4 Tunisia_3/Algeria_5/Algeria_6/Tunisia_2/Tunisia_1
1 of  1 HM315 France_11  0 km France_11 Tunisia_2/Libya_1/Algeria_7/Libya_4/Turkey_0
1 of  1 HM288 Germany_0  0 km Germany_0 Portugal_2/Spain_7/France_7/Morocco_4/Spain_1
1 of  11 HM009 Greece_4  2605.28 km Morocco_2/Syria_0 Cyprus_0/Italy_4/Greece_4/Libya_2/Algeria_2
2 of  11 HM036 Greece_4  2743.02 km Morocco_2/Syria_0 Cyprus_0/Italy_4/Greece_4/Libya_2/Algeria_2
3 of  11 HM061 Greece_4  2684.87 km Morocco_2/Syria_0 Cyprus_0/Italy_4/Greece_4/Libya_2/Algeria_2
4 of  11 HM062 Greece_4  2814.32 km Morocco_2/Syria_0 Cyprus_0/Italy_4/Greece_4/Libya_2/Algeria_2
5 of  11 HM077 Greece_4  2695.01 km Morocco_2/Syria_0 Cyprus_0/Italy_4/Greece_4/Libya_2/Algeria_2
6 of  11 HM078 Greece_4  2695.01 km Morocco_2/Syria_0 Cyprus_0/Italy_4/Greece_4/Libya_2/Algeria_2
7 of  11 HM133 Greece_4  925.07 km Libya_2 Italy_4/Cyprus_0/Morocco_2/Syria_0/Greece_4
8 of  11 HM186 Greece_4  2631.64 km Morocco_2/Syria_0 Cyprus_0/Italy_4/Greece_4/Libya_2/Algeria_2
9 of  11 HM187 Greece_4  2684.87 km Morocco_2/Syria_0 Cyprus_0/Italy_4/Greece_4/Libya_2/Algeria_2
10 of  11 HM188 Greece_4  2731.44 km Morocco_2/Syria_0 Cyprus_0/Italy_4/Greece_4/Libya_2/Algeria_2
11 of  11 HM203 Greece_4  2691.62 km Morocco_2/Syria_0 Cyprus_0/Italy_4/Greece_4/Libya_2/Algeria_2
1 of  1 HM289 Greece_5  0 km Greece_5 Algeria_2/Libya_2/Greece_4/Italy_4/Cyprus_0
1 of  1 HM134 Greece_3  0 km Greece_3 Israel_2/Algeria_2/Greece_1/Greece_5/Libya_2
1 of  1 HM259 Greece_2  0 km Greece_2 Spain_4/Morocco_5/Spain_1/Spain_7/Germany_0
1 of  1 HM314 Greece_1  0 km Greece_1 Israel_2/Libya_2/Algeria_2/Greece_4/Greece_5
1 of  3 HM039 Israel_1  63.79 km Israel_1 Jordan_0/Israel_2/Greece_1/Italy_5/Libya_3
2 of  3 HM066 Israel_1  35.7 km Israel_1 Jordan_0/Israel_2/Greece_1/Libya_3/Italy_5
3 of  3 HM109 Israel_1  44.2 km Israel_1 Jordan_0/Israel_2/Greece_1/Italy_5/Greece_5
1 of  1 HM135 Israel_2  0 km Israel_2 Greece_1/Libya_2/Algeria_2/Greece_5/Greece_4
1 of  1 HM010 Italy_3  0 km Italy_3 Italy_5/Greece_5/Israel_2/Greece_1/Algeria_2
1 of  2 HM040 Italy_4  2092.74 km Morocco_2/Syria_0 Cyprus_0/Italy_4/Greece_4/Libya_2/Algeria_2
2 of  2 HM302 Italy_4  1994.24 km Cyprus_0 Morocco_2/Syria_0/Italy_4/Greece_4/Libya_2
1 of  1 HM075 Italy_6  0 km Italy_6 Italy_1/Algeria_7/France_11/France_1/Portugal_4
1 of  2 HM111 Italy_5  135.47 km Italy_5 Italy_3/Israel_1/Jordan_0/Greece_5/Israel_2
2 of  2 HM301 Italy_5  179.91 km Italy_5 Italy_3/Greece_5/Israel_1/Israel_2/Greece_3
1 of  1 HM202 Italy_1  0 km Italy_1 France_1/Italy_6/France_9/France_6/Italy_2
1 of  1 HM300 Italy_2  0 km Italy_2 France_9/France_1/France_6/Italy_1/France_3
1 of  2 HM044 Jordan_0  86.42 km Israel_1 Israel_2/Greece_1/Jordan_0/Greece_5/Libya_2
2 of  2 HM045 Jordan_0  1291.09 km Libya_3 Israel_1/Turkey_0/Jordan_0/Libya_1/Italy_5
1 of  1 HM041 Libya_4  0 km Libya_4 Turkey_0/Libya_1/Libya_3/France_11/Jordan_0
1 of  1 HM138 Libya_3  0 km Libya_3 Turkey_0/Jordan_0/Libya_1/Libya_4/Israel_1
1 of  2 HM146 Libya_2  1028.3 km Greece_1 Israel_2/Algeria_2/Greece_4/Italy_4/Cyprus_0
2 of  2 HM148 Libya_2  2145.72 km Morocco_2/Syria_0 Cyprus_0/Italy_4/Greece_4/Algeria_2/Libya_2
1 of  1 HM147 Libya_1  0 km Libya_1 Turkey_0/Libya_3/Libya_4/France_11/Tunisia_2
1 of  9 HM012 Morocco_5  701.24 km Spain_4 Morocco_5/Greece_2/Spain_1/Spain_7/Germany_0
2 of  9 HM139 Morocco_5  2996.74 km Greece_2 Spain_4/Morocco_5/Spain_1/Spain_7/Germany_0
3 of  9 HM152 Morocco_5  2859.65 km Greece_2 Spain_4/Morocco_5/Spain_1/Spain_7/Germany_0
4 of  9 HM154 Morocco_5  3067.68 km Greece_2 Spain_4/Morocco_5/Spain_1/Spain_7/Germany_0
5 of  9 HM155 Morocco_5  3010.65 km Greece_2 Spain_4/Morocco_5/Spain_1/Spain_7/Germany_0
6 of  9 HM193 Morocco_5  2868.71 km Greece_2 Spain_4/Morocco_5/Spain_1/Spain_7/Germany_0
7 of  9 HM201 Morocco_5  2800.79 km Greece_2 Spain_4/Morocco_5/Spain_1/Spain_7/Germany_0
8 of  9 HM299 Morocco_5  2902.58 km Greece_2 Spain_4/Morocco_5/Spain_1/Spain_7/Germany_0
9 of  9 HM309 Morocco_5  478.98 km Spain_4 Greece_2/Morocco_5/Spain_1/Spain_7/Germany_0
1 of  2 HM046 Morocco_4  50.52 km Morocco_4 Morocco_6/France_7/Portugal_3/Portugal_2/Spain_5
2 of  2 HM070 Morocco_4  47.68 km Morocco_4 France_7/Morocco_6/Portugal_2/Portugal_3/Spain_5
1 of  1 HM071 Morocco_6  0 km Morocco_6 Morocco_4/Portugal_3/France_7/Spain_5/Spain_6
1 of  1 HM260 Morocco_2  0 km Morocco_2/Syria_0 Cyprus_0/Italy_4/Greece_4/Libya_2/Algeria_2
1 of  1 HM271 Morocco_7  0 km Morocco_7/Portugal_5 Spain_2/Spain_6/Spain_5/Portugal_3/Morocco_6
1 of  1 HM279 Morocco_3  0 km Morocco_3 Algeria_4/Algeria_3/France_8/Morocco_1/Algeria_1
1 of  1 HM311 Morocco_1  0 km Morocco_1 Algeria_1/Germany_0/Spain_7/France_7/Portugal_2
1 of  2 HM038 Portugal_2  35.96 km Portugal_2 Germany_0/France_7/Morocco_4/Portugal_3/Morocco_6
2 of  2 HM065 Portugal_2  32.58 km Portugal_2 France_7/Germany_0/Morocco_4/Portugal_3/Morocco_6
1 of  2 HM063 Portugal_5  240.24 km Morocco_7/Portugal_5 Spain_2/Spain_6/Spain_5/Portugal_3/Morocco_6
2 of  2 HM068 Portugal_5  230.35 km Morocco_7/Portugal_5 Spain_2/Spain_6/Spain_5/Portugal_3/Morocco_6
1 of  1 HM064 Portugal_1  0 km Portugal_1 Spain_3/Portugal_4/France_3/Italy_5/Libya_4
1 of  1 HM098 Portugal_4  0 km Portugal_4 Spain_3/Portugal_1/Morocco_6/France_3/Morocco_4
1 of  1 HM189 Portugal_3  0 km Portugal_3 Spain_5/Morocco_6/Morocco_4/France_7/Portugal_2
1 of  11 HM003 Spain_4  2695.87 km Greece_2 Spain_4/Morocco_5/Spain_1/Spain_7/Germany_0
2 of  11 HM031 Spain_4  2796.97 km Greece_2 Spain_4/Morocco_5/Spain_1/Spain_7/Germany_0
3 of  11 HM057 Spain_4  2879.81 km Greece_2 Spain_4/Morocco_5/Spain_1/Spain_7/Germany_0
4 of  11 HM089 Spain_4  2879.81 km Greece_2 Spain_4/Morocco_5/Spain_1/Spain_7/Germany_0
5 of  11 HM119 Spain_4  2864.94 km Greece_2 Spain_4/Morocco_5/Spain_1/Spain_7/Germany_0
6 of  11 HM121 Spain_4  2756.76 km Greece_2 Spain_4/Morocco_5/Spain_1/Spain_7/Germany_0
7 of  11 HM122 Spain_4  13.78 km Spain_4 Greece_2/Morocco_5/Spain_1/Spain_7/Germany_0
8 of  11 HM176 Spain_4  2724.96 km Greece_2 Spain_4/Morocco_5/Spain_1/Spain_7/Germany_0
9 of  11 HM177 Spain_4  2760.25 km Greece_2 Spain_4/Morocco_5/Spain_1/Spain_7/Germany_0
10 of  11 HM178 Spain_4  28.54 km Spain_4 Greece_2/Morocco_5/Spain_1/Spain_7/Germany_0
11 of  11 HM179 Spain_4  2733.67 km Greece_2 Spain_4/Morocco_5/Spain_1/Spain_7/Germany_0
1 of  1 HM056 Spain_6  0 km Spain_6 Spain_2/Morocco_7/Portugal_5/Spain_5/Morocco_6
1 of  7 HM058 Spain_2  229.29 km Morocco_7/Portugal_5 Spain_2/Spain_6/Spain_5/Portugal_3/Morocco_6
2 of  7 HM092 Spain_2  215.9 km Morocco_7/Portugal_5 Spain_2/Spain_6/Spain_5/Portugal_3/Morocco_6
3 of  7 HM117 Spain_2  425.38 km Morocco_7/Portugal_5 Spain_2/Spain_6/Spain_5/Portugal_3/Morocco_6
4 of  7 HM118 Spain_2  132.28 km Morocco_7/Portugal_5 Spain_2/Spain_6/Spain_5/Portugal_3/Morocco_6
5 of  7 HM120 Spain_2  326.41 km Morocco_7/Portugal_5 Spain_2/Spain_6/Spain_5/Portugal_3/Morocco_6
6 of  7 HM125 Spain_2  222.74 km Morocco_7/Portugal_5 Spain_2/Spain_6/Spain_5/Portugal_3/Morocco_6
7 of  7 HM181 Spain_2  222.74 km Morocco_7/Portugal_5 Spain_2/Spain_6/Spain_5/Portugal_3/Morocco_6
1 of  1 HM091 Spain_3  0 km Spain_3 Portugal_4/Portugal_1/Morocco_6/Libya_4/Morocco_4
1 of  1 HM093 Spain_7  0 km Spain_7 Spain_1/Morocco_5/Spain_4/Greece_2/Germany_0
1 of  1 HM124 Spain_5  0 km Spain_5 Portugal_3/Spain_6/Spain_2/Morocco_7/Portugal_5
1 of  2 HM169 Spain_1  25.37 km Spain_1 Spain_7/Morocco_5/Spain_4/Greece_2/Germany_0
2 of  2 HM180 Spain_1  452.44 km Morocco_5 Spain_1/Spain_4/Greece_2/Spain_7/Germany_0
1 of  2 HM001 Syria_0  4010.81 km Morocco_2/Syria_0 Cyprus_0/Italy_4/Greece_4/Libya_2/Algeria_2
2 of  2 HM150 Syria_0  4009.01 km Morocco_2/Syria_0 Cyprus_0/Italy_4/Greece_4/Libya_2/Algeria_2
1 of  31 HM016 Tunisia_3  688.55 km France_4 Tunisia_3/Algeria_5/Algeria_6/Tunisia_2/Tunisia_1
2 of  31 HM025 Tunisia_3  617.27 km France_4 Tunisia_3/Algeria_5/Algeria_6/Tunisia_2/Tunisia_1
3 of  31 HM043 Tunisia_3  727.66 km France_4 Tunisia_3/Algeria_5/Algeria_6/Tunisia_2/Tunisia_1
4 of  31 HM069 Tunisia_3  655.26 km France_4 Tunisia_3/Algeria_5/Algeria_6/Tunisia_2/Tunisia_1
5 of  31 HM073 Tunisia_3  709.15 km France_4 Tunisia_3/Algeria_5/Algeria_6/Tunisia_2/Tunisia_1
6 of  31 HM076 Tunisia_3  376.37 km Algeria_5 Tunisia_3/France_4/Algeria_6/Tunisia_2/Tunisia_1
7 of  31 HM106 Tunisia_3  383.5 km Algeria_5 Tunisia_3/France_4/Algeria_6/Tunisia_2/Tunisia_1
8 of  31 HM108 Tunisia_3  709.16 km France_4 Tunisia_3/Algeria_5/Algeria_6/Tunisia_2/Tunisia_1
9 of  31 HM192 Tunisia_3  655.26 km France_4 Tunisia_3/Algeria_5/Algeria_6/Tunisia_2/Tunisia_1
10 of  31 HM194 Tunisia_3  637.43 km France_4 Tunisia_3/Algeria_5/Algeria_6/Tunisia_2/Tunisia_1
11 of  31 HM196 Tunisia_3  781.93 km France_4 Tunisia_3/Algeria_5/Algeria_6/Tunisia_2/Tunisia_1
12 of  31 HM198 Tunisia_3  727.65 km France_4 Tunisia_3/Algeria_5/Algeria_6/Tunisia_2/Tunisia_1
13 of  31 HM213 Tunisia_3  659.78 km France_4 Tunisia_3/Algeria_5/Algeria_6/Tunisia_2/Tunisia_1
14 of  31 HM219 Tunisia_3  659.78 km France_4 Tunisia_3/Algeria_5/Algeria_6/Tunisia_2/Tunisia_1
15 of  31 HM220 Tunisia_3  659.78 km France_4 Tunisia_3/Algeria_5/Algeria_6/Tunisia_2/Tunisia_1
16 of  31 HM221 Tunisia_3  659.78 km France_4 Tunisia_3/Algeria_5/Algeria_6/Tunisia_2/Tunisia_1
17 of  31 HM222 Tunisia_3  659.78 km France_4 Tunisia_3/Algeria_5/Algeria_6/Tunisia_2/Tunisia_1
18 of  31 HM223 Tunisia_3  602.85 km France_4 Tunisia_3/Algeria_5/Algeria_6/Tunisia_2/Tunisia_1
19 of  31 HM224 Tunisia_3  602.84 km France_4 Tunisia_3/Algeria_5/Algeria_6/Tunisia_2/Tunisia_1
20 of  31 HM226 Tunisia_3  602.85 km France_4 Tunisia_3/Algeria_5/Algeria_6/Tunisia_2/Tunisia_1
21 of  31 HM231 Tunisia_3  602.85 km France_4 Tunisia_3/Algeria_5/Algeria_6/Tunisia_2/Tunisia_1
22 of  31 HM232 Tunisia_3  617.27 km France_4 Tunisia_3/Algeria_5/Algeria_6/Tunisia_2/Tunisia_1
23 of  31 HM233 Tunisia_3  617.27 km France_4 Tunisia_3/Algeria_5/Algeria_6/Tunisia_2/Tunisia_1
24 of  31 HM234 Tunisia_3  342.27 km Algeria_5 Tunisia_3/France_4/Algeria_6/Tunisia_2/Tunisia_1
25 of  31 HM235 Tunisia_3  617.27 km France_4 Tunisia_3/Algeria_5/Algeria_6/Tunisia_2/Tunisia_1
26 of  31 HM236 Tunisia_3  617.27 km France_4 Tunisia_3/Algeria_5/Algeria_6/Tunisia_2/Tunisia_1
27 of  31 HM237 Tunisia_3  617.27 km France_4 Tunisia_3/Algeria_5/Algeria_6/Tunisia_2/Tunisia_1
28 of  31 HM238 Tunisia_3  617.27 km France_4 Tunisia_3/Algeria_5/Algeria_6/Tunisia_2/Tunisia_1
29 of  31 HM239 Tunisia_3  656.82 km France_4 Tunisia_3/Algeria_5/Algeria_6/Tunisia_2/Tunisia_1
30 of  31 HM244 Tunisia_3  617.27 km France_4 Tunisia_3/Algeria_5/Algeria_6/Tunisia_2/Tunisia_1
31 of  31 HM245 Tunisia_3  333.59 km Algeria_5 Tunisia_3/France_4/Algeria_6/Tunisia_2/Tunisia_1
