Population	Sample_no	Sample_id	CentroidLon	CentroidLat	PredLon	PredLat	identical accessions	closest accessions
Borung	1	HM019	8.7550521256	36.5584688616	8.79578665875358	36.65123105282	HM025	HM025/HM050/HM076/HM106/HM219/HM245/HM253/HM310
A17_Varma	1	HM101	-5.24425	36.893125	-5.24425	36.893125	HM058/HM063/HM092/HM117/HM118/HM120/HM181/HM271	HM056/HM058/HM063/HM068/HM092/HM117/HM118/HM120/HM124/HM125/HM170/HM181/HM189/HM270/HM271
SA27192	1	HM111	14.23333333	40.55	14.3786835135582	40.4867398662352	HM301	HM010/HM037/HM145/HM160/HM289/HM301/HM312/HM314
SA28097	1	HM112	24.4245130952381	36.4503112380952	24.4245130952381	36.4503112380952	HM001/HM002/HM009/HM036/HM040/HM061/HM062/HM077/HM078/HM099/HM148/HM149/HM156/HM157/HM186/HM188/HM200/HM203/HM260/HM287/HM302	HM001/HM002/HM009/HM036/HM040/HM061/HM062/HM077/HM078/HM099/HM114/HM133/HM148/HM149/HM150/HM151/HM156/HM157/HM186/HM187/HM188/HM200/HM203/HM260/HM268/HM287/HM289/HM302
Cyprus_C	1	HM115	24.4245130952381	36.4503112380952	24.4245130952381	36.4503112380952	HM001/HM002/HM009/HM036/HM040/HM061/HM062/HM077/HM078/HM099/HM148/HM149/HM156/HM157/HM186/HM188/HM200/HM203/HM260/HM287/HM302	HM001/HM002/HM009/HM036/HM040/HM061/HM062/HM077/HM078/HM099/HM114/HM133/HM148/HM149/HM150/HM151/HM156/HM157/HM186/HM187/HM188/HM200/HM203/HM260/HM268/HM287/HM289/HM302
SA12455	1	HM197	8.933	39.117	8.08636047636953	39.9884670888454	HM075	HM007/HM027/HM075/HM153/HM163/HM184/HM202/HM315
Caliph	1	HM207	24.75	35.25	24.3030998963749	35.3382434065281	HM289	HM037/HM114/HM133/HM146/HM151/HM268/HM289/HM314
Paraggio	1	HM208	35	33	34.8908299807208	32.9961642681828	HM109	HM023/HM039/HM044/HM045/HM066/HM109/HM135/HM138
Sephi	1	HM209	24.4245130952381	36.4503112380952	24.4245130952381	36.4503112380952	HM001/HM002/HM009/HM036/HM040/HM061/HM062/HM077/HM078/HM099/HM148/HM149/HM156/HM157/HM186/HM188/HM200/HM203/HM260/HM287/HM302	HM001/HM002/HM009/HM036/HM040/HM061/HM062/HM077/HM078/HM099/HM114/HM133/HM148/HM149/HM150/HM151/HM156/HM157/HM186/HM187/HM188/HM200/HM203/HM260/HM268/HM287/HM289/HM302
PI442895SSD	1	HM256	-5.24425	36.893125	-5.24425	36.893125	HM058/HM063/HM092/HM117/HM118/HM120/HM181/HM271	HM056/HM058/HM063/HM068/HM092/HM117/HM118/HM120/HM124/HM125/HM170/HM181/HM189/HM270/HM271
PI564941SSD	1	HM262	-4.19681818227273	35.4666969695455	-4.19681818227273	35.4666969695455	HM003/HM031/HM057/HM089/HM119/HM139/HM152/HM155/HM175/HM176/HM177/HM178/HM179/HM190/HM193/HM201/HM259/HM299/HM304/HM305/HM307/HM309	HM003/HM012/HM031/HM057/HM089/HM093/HM119/HM121/HM122/HM139/HM152/HM154/HM155/HM169/HM175/HM176/HM177/HM178/HM179/HM180/HM190/HM193/HM201/HM259/HM299/HM304/HM305/HM307/HM309
PI660470SSD	1	HM269	14.503041	35.891879	16.2763693154855	36.5493786859354	HM312	HM010/HM134/HM145/HM153/HM160/HM301/HM312/HM314
D1.2.3	1	HM280	23.932	39.987	23.8748923364424	39.9466167934318	HM037	HM037/HM114/HM133/HM151/HM187/HM268/HM289/HM314
PI577640SSD	1	HM290	24.4245130952381	36.4503112380952	24.4245130952381	36.4503112380952	HM001/HM002/HM009/HM036/HM040/HM061/HM062/HM077/HM078/HM099/HM148/HM149/HM156/HM157/HM186/HM188/HM200/HM203/HM260/HM287/HM302	HM001/HM002/HM009/HM036/HM040/HM061/HM062/HM077/HM078/HM099/HM114/HM133/HM148/HM149/HM150/HM151/HM156/HM157/HM186/HM187/HM188/HM200/HM203/HM260/HM268/HM287/HM289/HM302
PI660411SSD	1	HM293	14.23333333	40.55	14.8534111328395	40.193106358796	HM301	HM010/HM023/HM109/HM135/HM145/HM160/HM301/HM312
PI660408SSD	1	HM313	24.4245130952381	36.4503112380952	24.4245130952381	36.4503112380952	HM001/HM002/HM009/HM036/HM040/HM061/HM062/HM077/HM078/HM099/HM148/HM149/HM156/HM157/HM186/HM188/HM200/HM203/HM260/HM287/HM302	HM001/HM002/HM009/HM036/HM040/HM061/HM062/HM077/HM078/HM099/HM114/HM133/HM148/HM149/HM150/HM151/HM156/HM157/HM186/HM187/HM188/HM200/HM203/HM260/HM268/HM287/HM289/HM302
PI660421SSD	1	HM316	24.4245130952381	36.4503112380952	24.4245130952381	36.4503112380952	HM001/HM002/HM009/HM036/HM040/HM061/HM062/HM077/HM078/HM099/HM148/HM149/HM156/HM157/HM186/HM188/HM200/HM203/HM260/HM287/HM302	HM001/HM002/HM009/HM036/HM040/HM061/HM062/HM077/HM078/HM099/HM114/HM133/HM148/HM149/HM150/HM151/HM156/HM157/HM186/HM187/HM188/HM200/HM203/HM260/HM268/HM287/HM289/HM302
