VARIABLE	GENE_NAME	AVG_FST	STDEV_FST	N_SNPs
ITH	Medtr1g011530	nan	nan	0	
AMT	Medtr1g017850	nan	nan	0	
AMT	Medtr1g017870	0.28866355	0.21257345	2.0
PWM	Medtr1g019040	0.525833	0.0	1.0
ITH	Medtr1g038290	nan	nan	0	
PWM	Medtr1g045760	nan	nan	0	
ITH	Medtr1g045930	0.130250259743	0.173151886112	35.0
PWM	Medtr1g063800	nan	nan	0	
AMT	Medtr1g075410	nan	nan	0	
PWM	Medtr2g025550	0.1909402	0.149692362836	6.0
PWM	Medtr2g025580	0.255054	0.0948160557132	4.0
PWM	Medtr2g025590	0.15558991375	0.131510294372	8.0
PWM	Medtr2g025610	0.232553284615	0.118027694722	13.0
PWM	Medtr2g025620	0.151249025	0.0613586387977	8.0
PWM	Medtr2g025710	0.11472805	0.0658112737018	4.0
PWM	Medtr2g025760	nan	nan	0	
PWM	Medtr2g025780	0.107614457143	0.12860277989	7.0
PWM	Medtr2g025790	0.169068190909	0.129304009369	11.0
PWM	Medtr2g025810	nan	nan	0	
PWM	Medtr2g025960	nan	nan	0	
PWM	Medtr2g026000	nan	nan	0	
PWM	Medtr2g026030	0.10808684	0.128190850014	10.0
PWM	Medtr2g026040	0.146106591667	0.163176838073	12.0
PWM	Medtr2g026060	0.217816	0.0	1.0
PWM	Medtr2g027090	0.244181246667	0.170553792794	15.0
PWM	Medtr2g027500	nan	nan	0	
PWM	Medtr2g027800	0.106146	0.0	1.0
PWM	Medtr2g028230	0.221400350714	0.14464563395	14.0
PWM	Medtr2g028420	0.07186894125	0.0633560550563	8.0
AMT	Medtr2g039300	0.0228526	0.0	1.0
ITH	Medtr2g074930	nan	nan	0	
ITH	Medtr2g081330	nan	nan	0	
ITH	Medtr2g081470	0.106729292045	0.119080965147	44.0
AMT	Medtr2g082340	nan	nan	0	
ITH	Medtr2g104430	0.27948138875	0.234582132338	8.0
ITH	Medtr3g005720	0.153511733636	0.136335905361	11.0
AMT	Medtr3g010790	0.1807793355	0.171915019859	20.0
ITH	Medtr3g032710	nan	nan	0	
ITH	Medtr3g032720	nan	nan	0	
ITH	Medtr3g048870	nan	nan	0	
ITH	Medtr3g085660	0.21960135	0.159411380627	4.0
ITH	Medtr3g085670	0.2658209625	0.155077776236	8.0
PWM	Medtr3g093430	0.168415112	0.159621917508	15.0
PWM	Medtr4g023400	0.039178312	0.0310112152556	10.0
PWM	Medtr4g030060	0.215751408333	0.150907684158	24.0
PWM	Medtr4g035170	0.10976049	0.0723855795997	8.0
AMT	Medtr4g053330	0.146549388235	0.118751372107	17.0
AMT	Medtr4g053320	nan	nan	0	
ITH	Medtr4g057020	0.1512957	0.0597533	2.0
AMT	Medtr4g059760	0.164572167333	0.155303412093	15.0
PWM	Medtr4g063600	0.22750932	0.16858190259	5.0
ITH	Medtr4g064240	nan	nan	0	
AMT	Medtr4g064550	0.228190633333	0.118435787142	3.0
AMT	Medtr4g064780	0.210332323571	0.155402611749	14.0
PWM	Medtr4g068110	0.0887313	0.0405727	2.0
ITH	Medtr4g075150	nan	nan	0	
ITH	Medtr4g077030	nan	nan	0	
AMT	Medtr4g079820	nan	nan	0	
ITH	Medtr4g080740	0.0429795333333	0.0417770390045	3.0
AMT	Medtr4g097490	nan	nan	0	
ITH	Medtr4g114850	0.207776777778	0.187049467718	9.0
AMT	Medtr4g119450	nan	nan	0	
PWM	Medtr4g124150	nan	nan	0	
PWM	Medtr4g127840	nan	nan	0	
AMT	Medtr5g014320	0.229152583333	0.114865140916	12.0
AMT	Medtr5g017000	nan	nan	0	
ITH	Medtr5g019070	0.136729717538	0.125253520762	13.0
AMT	Medtr5g019700	0.278235	0.0	1.0
ITH	Medtr5g021100	0.126536572667	0.148177604272	15.0
ITH	Medtr5g021110	0.160758273636	0.182664743108	11.0
AMT	Medtr5g026000	0.0710301634483	0.0689544240533	29.0
ITH	Medtr5g034510	nan	nan	0	
ITH	Medtr5g038150	nan	nan	0	
AMT	Medtr5g038860	0.0094759325	0.0126424896276	8.0
PWM	Medtr5g043190	0.0527886933333	0.0527177909852	3.0
ITH	Medtr5g045600	0.167728701429	0.131399665314	7.0
ITH	Medtr5g054770	0.363696	0.0923679948611	3.0
AMT	Medtr5g056560	nan	nan	0	
PWM	Medtr5g064420	0.0251300407143	0.0451955304736	14.0
PWM	Medtr5g075030	nan	nan	0	
ITH	Medtr5g081460	nan	nan	0	
AMT	Medtr5g091610	nan	nan	0	
AMT	Medtr5g092370	0.179098809737	0.147848934903	38.0
AMT	Medtr5g095640	nan	nan	0	
AMT	Medtr5g095690	0.10363831	0.102820358754	21.0
AMT	Medtr5g095720	0.131430981818	0.0665813700976	22.0
ITH	Medtr6g009660	0.0816484629412	0.0849080685427	17.0
PWM	Medtr6g027130	0.0667559696571	0.107306593561	35.0
AMT	Medtr6g074650	nan	nan	0	
AMT	Medtr6g077750	0.070431216	0.0800915226911	14.0
ITH	Medtr6g087780	0.0468029536364	0.0475374294856	11.0
ITH	Medtr6g087890	0.115000020286	0.0889632563749	35.0
ITH	Medtr6g088010	0.07039556906	0.0686953580574	50.0
PWM	Medtr6g091990	nan	nan	0	
ITH	Medtr7g026750	nan	nan	0	
ITH	Medtr7g060940	0.30176965625	0.295482005788	16.0
AMT	Medtr7g071780	0.2309657	0.1460813	2.0
AMT	Medtr7g074620	0.160490512857	0.15584464916	14.0
AMT	Medtr7g082470	nan	nan	0	
ITH	Medtr7g086500	0.22460671	0.105306283266	20.0
ITH	Medtr7g092870	nan	nan	0	
ITH	Medtr7g101200	0.197390542857	0.152990496517	7.0
ITH	Medtr7g112900	0.309887690909	0.262670548628	11.0
ITH	Medtr7g116160	nan	nan	0	
ITH	Medtr7g118100	0.798709	0.0	1.0
ITH	Medtr8g009090	nan	nan	0	
PWM	Medtr8g020950	0.1633325	0.0598445	2.0
PWM	Medtr8g020970	0.074046423913	0.0755207021773	23.0
PWM	Medtr8g032430	nan	nan	0	
AMT	Medtr8g039620	0.114632973333	0.0651472929729	12.0
AMT	Medtr8g039630	nan	nan	0	
PWM	Medtr8g063230	0.194927	0.16269384888	9.0
AMT	Medtr8g077980	nan	nan	0	
AMT	Medtr8g079250	0.15567565	0.0836650019396	12.0
PWM	Medtr8g088240	nan	nan	0	
PWM	Medtr8g088350	nan	nan	0	
